…
### Internal check (omit)

``` r
## ---------------------
## LOCAL CHECK!
## ---------------------


net_str_f('spatialSPsurv')
#> Registered S3 method overwritten by 'pryr':
#>   method      from
#>   print.bytes Rcpp
#> # A tibble: 25 x 6
#>    ind         `func 1`        `func 2`       `func 3`     `func 4`   `func 5`  
#>    <fct>       <chr>           <chr>          <chr>        <chr>      <chr>     
#>  1 betas.post  ""              ""             ""           ""         ""        
#>  2 betas.slic~ "univ.betas.sl~ ""             ""           ""         ""        
#>  3 formcall    ""              ""             ""           ""         ""        
#>  4 gammas.post ""              ""             ""           ""         ""        
#>  5 gammas.pos~ ""              ""             ""           ""         ""        
#>  6 gammas.sli~ "univ.gammas.s~ ""             ""           ""         ""        
#>  7 lambda.gib~ ""              ""             ""           ""         ""        
#>  8 mcmcfrailt~ "betas.slice.s~ "rho.slice.sa~ "V.F.MH.sam~ ""         ""        
#>  9 mcmcSP      "betas.slice.s~ "gammas.slice~ "rho.slice.~ ""         ""        
#> 10 mcmcspatia~ "betas.slice.s~ "lambda.gibbs~ "rho.slice.~ "V.MH.sam~ "W.MH.sam~
#> # ... with 15 more rows
```
